Simulate Boreal Caribou Survival, Recruitment and Population Growth • bbousims
…
The recruitment and survival data are formatted to be used as input for bboutools model fitting functions.

data <- bbs_simulate_caribou(nyear = 30, 
                             adult_females = 500,
                             survival_adult_female = 0.85,
                             survival_calf_female = 0.5,
                             calves_per_adult_female = 0.7, 
                             survival_trend_calf_female = -0.01,
                             group_size = 15,
                             group_coverage = 0.3,
                             collared_adult_females = 30)

data$survival
#> # A tibble: 360 × 6
#>     Year Month PopulationName StartTotal MortalitiesCertain MortalitiesUncertain
#>    <int> <int> <chr>               <dbl>              <int>                <int>
#>  1     1     1 A                      30                  0                    0
#>  2     1     2 A                      30                  0                    0
#>  3     1     3 A                      30                  0                    0
#>  4     1     4 A                      30                  0                    0
#>  5     1     5 A                      30                  0                    0
#>  6     1     6 A                      30                  0                    0
#>  7     1     7 A                      30                  0                    0
#>  8     1     8 A                      30                  0                    0
#>  9     1     9 A                      30                  0                    0
#> 10     1    10 A                      30                  0                    0
#> # ℹ 350 more rows

data$recruitment
#> # A tibble: 509 × 9
#>     Year Month PopulationName   Day  Cows Bulls Yearlings Calves UnknownAdults
#>    <int> <int> <chr>          <dbl> <int> <int>     <int>  <int>         <int>
#>  1     1     9 A                  1     5     4         3      1             0
#>  2     1     9 A                  1     4     4         2      2             0
#>  3     1     9 A                  1     6     2         5      5             0
#>  4     1     9 A                  1     7     1         5      5             0
#>  5     1     9 A                  1    10     4         1      1             0
#>  6     1     9 A                  1     3     4         1      6             0
#>  7     1     9 A                  1    11     9         0      5             0
#>  8     1     9 A                  1     5     2         3      3             0
#>  9     1     9 A                  1     7     3         2      3             0
#> 10     1     9 A                  1     4     2         2      4             0
#> # ℹ 499 more rows
…
