…
View collar survival data for the first simulation

``` r
# collar survival data for first simulation
print(data[[1]]$survival)
#> # A tibble: 60 × 6
#>     Year Month PopulationName StartTotal MortalitiesCertain MortalitiesUncertain
#>    <int> <int> <chr>               <dbl>              <int>                <int>
#>  1     1     1 A                      30                  1                    0
#>  2     1     2 A                      29                  0                    0
#>  3     1     3 A                      29                  2                    0
#>  4     1     4 A                      27                  1                    0
#>  5     1     5 A                      26                  0                    0
#>  6     1     6 A                      26                  0                    0
#>  7     1     7 A                      26                  1                    0
#>  8     1     8 A                      25                  0                    0
#>  9     1     9 A                      25                  0                    0
#> 10     1    10 A                      25                  0                    0
#> # ℹ 50 more rows
```
…
