Get Started with bbousims • bbousims
…
Key sampling parameters for recruitment data include month of
composition survey, mean group size, minimum group size, maximum group
size (as proportion of total population), proportion of groups observed
(group_coverage), probability that an adult female has
unknown sex, and probability that an adult male has unknown sex.

Each row in the recruitment dataset is an observed group with total
number of cows, bulls, yearlings, calves and unknown adults.

data[[1]]$recruitment
#> # A tibble: 252 × 9
#>     Year Month PopulationName   Day  Cows Bulls Yearlings Calves UnknownAdults
#>    <int> <int> <chr>          <dbl> <int> <int>     <int>  <int>         <int>
#>  1     1     9 A                  1     4     2         1      2             0
#>  2     1     9 A                  1     1     0         1      2             0
#>  3     1     9 A                  1     3     1         4      0             0
#>  4     1     9 A                  1     1     1         0      2             0
#>  5     1     9 A                  1     1     4         0      2             0
#>  6     1     9 A                  1     0     1         2      0             0
#>  7     1     9 A                  1     2     1         0      2             0
#>  8     1     9 A                  1     3     1         0      2             0
#>  9     1     9 A                  1     3     4         1      4             0
#> 10     1     9 A                  1     3     0         2      1             0
#> # ℹ 242 more rows

Key sampling parameters for survival data are the collaring month,
number of collars, probability of uncertain mortality (i.e., collar lost
and assumed dead), probability of uncertain survival (i.e., collar lost
and assumed alive). The number of collars are ‘topped up’ each year in
the collaring month.

print(data[[1]]$survival, n = 13)
#> # A tibble: 60 × 6
#>     Year Month PopulationName StartTotal MortalitiesCertain MortalitiesUncertain
#>    <int> <int> <chr>               <dbl>              <int>                <int>
#>  1     1     1 A                      50                  0                    0
#>  2     1     2 A                      50                  0                    0
#>  3     1     3 A                      50                  1                    0
#>  4     1     4 A                      49                  1                    0
#>  5     1     5 A                      48                  0                    0
#>  6     1     6 A                      48                  2                    0
#>  7     1     7 A                      46                  1                    0
#>  8     1     8 A                      45                  0                    0
#>  9     1     9 A                      45                  1                    0
#> 10     1    10 A                      44                  0                    0
#> 11     1    11 A                      44                  0                    0
#> 12     1    12 A                      44                  1                    0
#> 13     2     1 A                      50                  1                    0
#> # ℹ 47 more rows
…
